%YAML 1.1
%TAG !u! tag:unity3d.com,2011:
--- !u!1001 &7660370328355835371
PrefabInstance:
  m_ObjectHideFlags: 0
  serializedVersion: 2
  m_Modification:
    serializedVersion: 3
    m_TransformParent: {fileID: 0}
    m_Modifications:
    - target: {fileID: 1905608380112779532, guid: 7c266d303ec5faeb88184817f425401e,
        type: 3}
      propertyPath: prewarm
      value: 1
      objectReference: {fileID: 0}
    - target: {fileID: 1905608380112779532, guid: 7c266d303ec5faeb88184817f425401e,
        type: 3}
      propertyPath: lengthInSec
      value: 0.1
      objectReference: {fileID: 0}
    - target: {fileID: 1905608380112779532, guid: 7c266d303ec5faeb88184817f425401e,
        type: 3}
      propertyPath: ShapeModule.type
      value: 0
      objectReference: {fileID: 0}
    - target: {fileID: 1905608380112779532, guid: 7c266d303ec5faeb88184817f425401e,
        type: 3}
      propertyPath: ShapeModule.radiusThickness
      value: 1
      objectReference: {fileID: 0}
    - target: {fileID: 1905608380112779532, guid: 7c266d303ec5faeb88184817f425401e,
        type: 3}
      propertyPath: InitialModule.maxNumParticles
      value: 500
      objectReference: {fileID: 0}
    - target: {fileID: 1905608380112779532, guid: 7c266d303ec5faeb88184817f425401e,
        type: 3}
      propertyPath: EmissionModule.rateOverTime.scalar
      value: 400
      objectReference: {fileID: 0}
    - target: {fileID: 1905608380112779532, guid: 7c266d303ec5faeb88184817f425401e,
        type: 3}
      propertyPath: InitialModule.startColor.maxGradient.ctime0
      value: 193
      objectReference: {fileID: 0}
    - target: {fileID: 1905608380112779532, guid: 7c266d303ec5faeb88184817f425401e,
        type: 3}
      propertyPath: InitialModule.startColor.maxGradient.key0.b
      value: 0
      objectReference: {fileID: 0}
    - target: {fileID: 1905608380112779532, guid: 7c266d303ec5faeb88184817f425401e,
        type: 3}
      propertyPath: InitialModule.startColor.maxGradient.key0.g
      value: 0
      objectReference: {fileID: 0}
    - target: {fileID: 1905608380112779532, guid: 7c266d303ec5faeb88184817f425401e,
        type: 3}
      propertyPath: InitialModule.startColor.maxGradient.key0.r
      value: 0
      objectReference: {fileID: 0}
    - target: {fileID: 1905608380112779532, guid: 7c266d303ec5faeb88184817f425401e,
        type: 3}
      propertyPath: InitialModule.startColor.maxGradient.key1.b
      value: 0
      objectReference: {fileID: 0}
    - target: {fileID: 1905608380112779532, guid: 7c266d303ec5faeb88184817f425401e,
        type: 3}
      propertyPath: InitialModule.startColor.maxGradient.key1.g
      value: 0
      objectReference: {fileID: 0}
    - target: {fileID: 1905608380112779532, guid: 7c266d303ec5faeb88184817f425401e,
        type: 3}
      propertyPath: InitialModule.startColor.maxGradient.key1.r
      value: 0
      objectReference: {fileID: 0}
    - target: {fileID: 2614357803063909548, guid: 7c266d303ec5faeb88184817f425401e,
        type: 3}
      propertyPath: m_Name
      value: TimeBotSpawner
      objectReference: {fileID: 0}
    - target: {fileID: 6161459886594228411, guid: 7c266d303ec5faeb88184817f425401e,
        type: 3}
      propertyPath: m_RootOrder
      value: 0
      objectReference: {fileID: 0}
    - target: {fileID: 6161459886594228411, guid: 7c266d303ec5faeb88184817f425401e,
        type: 3}
      propertyPath: m_LocalPosition.x
      value: 0
      objectReference: {fileID: 0}
    - target: {fileID: 6161459886594228411, guid: 7c266d303ec5faeb88184817f425401e,
        type: 3}
      propertyPath: m_LocalPosition.y
      value: 0
      objectReference: {fileID: 0}
    - target: {fileID: 6161459886594228411, guid: 7c266d303ec5faeb88184817f425401e,
        type: 3}
      propertyPath: m_LocalPosition.z
      value: 0
      objectReference: {fileID: 0}
    - target: {fileID: 6161459886594228411, guid: 7c266d303ec5faeb88184817f425401e,
        type: 3}
      propertyPath: m_LocalRotation.w
      value: 1
      objectReference: {fileID: 0}
    - target: {fileID: 6161459886594228411, guid: 7c266d303ec5faeb88184817f425401e,
        type: 3}
      propertyPath: m_LocalRotation.x
      value: 0
      objectReference: {fileID: 0}
    - target: {fileID: 6161459886594228411, guid: 7c266d303ec5faeb88184817f425401e,
        type: 3}
      propertyPath: m_LocalRotation.y
      value: 0
      objectReference: {fileID: 0}
    - target: {fileID: 6161459886594228411, guid: 7c266d303ec5faeb88184817f425401e,
        type: 3}
      propertyPath: m_LocalRotation.z
      value: 0
      objectReference: {fileID: 0}
    - target: {fileID: 6161459886594228411, guid: 7c266d303ec5faeb88184817f425401e,
        type: 3}
      propertyPath: m_LocalEulerAnglesHint.x
      value: 0
      objectReference: {fileID: 0}
    - target: {fileID: 6161459886594228411, guid: 7c266d303ec5faeb88184817f425401e,
        type: 3}
      propertyPath: m_LocalEulerAnglesHint.y
      value: 0
      objectReference: {fileID: 0}
    - target: {fileID: 6161459886594228411, guid: 7c266d303ec5faeb88184817f425401e,
        type: 3}
      propertyPath: m_LocalEulerAnglesHint.z
      value: 0
      objectReference: {fileID: 0}
    - target: {fileID: 6537003124351800931, guid: 7c266d303ec5faeb88184817f425401e,
        type: 3}
      propertyPath: m_LengthScale
      value: 1
      objectReference: {fileID: 0}
    - target: {fileID: 6537003124351800931, guid: 7c266d303ec5faeb88184817f425401e,
        type: 3}
      propertyPath: m_FreeformStretching
      value: 1
      objectReference: {fileID: 0}
    m_RemovedComponents: []
    m_RemovedGameObjects: []
    m_AddedGameObjects: []
    m_AddedComponents:
    - targetCorrespondingSourceObject: {fileID: 2614357803063909548, guid: 7c266d303ec5faeb88184817f425401e,
        type: 3}
      insertIndex: -1
      addedObject: {fileID: 52689444218470309}
  m_SourcePrefab: {fileID: 100100000, guid: 7c266d303ec5faeb88184817f425401e, type: 3}
--- !u!1 &5622474377186677063 stripped
GameObject:
  m_CorrespondingSourceObject: {fileID: 2614357803063909548, guid: 7c266d303ec5faeb88184817f425401e,
    type: 3}
  m_PrefabInstance: {fileID: 7660370328355835371}
  m_PrefabAsset: {fileID: 0}
--- !u!114 &52689444218470309
MonoBehaviour:
  m_ObjectHideFlags: 0
  m_CorrespondingSourceObject: {fileID: 0}
  m_PrefabInstance: {fileID: 0}
  m_PrefabAsset: {fileID: 0}
  m_GameObject: {fileID: 5622474377186677063}
  m_Enabled: 1
  m_EditorHideFlags: 0
  m_Script: {fileID: 11500000, guid: 851c375518fe3ef24a35748d3687afe2, type: 3}
  m_Name: 
  m_EditorClassIdentifier: 
  circlePrefab: {fileID: 3310407108700090870, guid: 0f7645cb3ca1e08318a15f1f848a0817,
    type: 3}
  inRangeCirclePrefab: {fileID: 7268288177844519558, guid: c9ba231710dca4a6cb3d8fb7c398e6bd,
    type: 3}
  countTextPrefab: {fileID: 3484758241497812933, guid: 07cd9945ea029c2a48d47c13be441be2,
    type: 3}
  colorHarbinger: {r: 0.65882355, g: 0.14901961, b: 0.14901961, a: 1}
  colorRaven: {r: 0.9607843, g: 0.8352941, b: 0.2784314, a: 1}
  colorCyclops: {r: 0.16470589, g: 0.39607844, b: 0.22745098, a: 1}
  particle: {fileID: 8087636464251614439}
  seconds: 30
  maxCount: 8
  timeBetweenSuccessiveSpawns: 2
--- !u!198 &8087636464251614439 stripped
ParticleSystem:
  m_CorrespondingSourceObject: {fileID: 1905608380112779532, guid: 7c266d303ec5faeb88184817f425401e,
    type: 3}
  m_PrefabInstance: {fileID: 7660370328355835371}
  m_PrefabAsset: {fileID: 0}
