%YAML 1.1
%TAG !u! tag:unity3d.com,2011:
--- !u!1001 &556826344007090065
PrefabInstance:
  m_ObjectHideFlags: 0
  serializedVersion: 2
  m_Modification:
    serializedVersion: 3
    m_TransformParent: {fileID: 0}
    m_Modifications:
    - target: {fileID: 859871988630895906, guid: f48eea89053a5934e984b6850bada204,
        type: 3}
      propertyPath: m_Text
      value: 
      objectReference: {fileID: 0}
    - target: {fileID: 4451565517434380619, guid: f48eea89053a5934e984b6850bada204,
        type: 3}
      propertyPath: m_Name
      value: MainNavigationButton
      objectReference: {fileID: 0}
    - target: {fileID: 7878004499118480939, guid: f48eea89053a5934e984b6850bada204,
        type: 3}
      propertyPath: m_margin.x
      value: 0
      objectReference: {fileID: 0}
    - target: {fileID: 7878004499118480939, guid: f48eea89053a5934e984b6850bada204,
        type: 3}
      propertyPath: m_HorizontalAlignment
      value: 2
      objectReference: {fileID: 0}
    - target: {fileID: 8167212301778442102, guid: f48eea89053a5934e984b6850bada204,
        type: 3}
      propertyPath: m_Pivot.x
      value: 0.5
      objectReference: {fileID: 0}
    - target: {fileID: 8167212301778442102, guid: f48eea89053a5934e984b6850bada204,
        type: 3}
      propertyPath: m_Pivot.y
      value: 0.5
      objectReference: {fileID: 0}
    - target: {fileID: 8167212301778442102, guid: f48eea89053a5934e984b6850bada204,
        type: 3}
      propertyPath: m_RootOrder
      value: 0
      objectReference: {fileID: 0}
    - target: {fileID: 8167212301778442102, guid: f48eea89053a5934e984b6850bada204,
        type: 3}
      propertyPath: m_AnchorMax.x
      value: 0.5
      objectReference: {fileID: 0}
    - target: {fileID: 8167212301778442102, guid: f48eea89053a5934e984b6850bada204,
        type: 3}
      propertyPath: m_AnchorMax.y
      value: 0.5
      objectReference: {fileID: 0}
    - target: {fileID: 8167212301778442102, guid: f48eea89053a5934e984b6850bada204,
        type: 3}
      propertyPath: m_AnchorMin.x
      value: 0.5
      objectReference: {fileID: 0}
    - target: {fileID: 8167212301778442102, guid: f48eea89053a5934e984b6850bada204,
        type: 3}
      propertyPath: m_AnchorMin.y
      value: 0.5
      objectReference: {fileID: 0}
    - target: {fileID: 8167212301778442102, guid: f48eea89053a5934e984b6850bada204,
        type: 3}
      propertyPath: m_SizeDelta.x
      value: 330
      objectReference: {fileID: 0}
    - target: {fileID: 8167212301778442102, guid: f48eea89053a5934e984b6850bada204,
        type: 3}
      propertyPath: m_SizeDelta.y
      value: 50
      objectReference: {fileID: 0}
    - target: {fileID: 8167212301778442102, guid: f48eea89053a5934e984b6850bada204,
        type: 3}
      propertyPath: m_LocalPosition.x
      value: 0
      objectReference: {fileID: 0}
    - target: {fileID: 8167212301778442102, guid: f48eea89053a5934e984b6850bada204,
        type: 3}
      propertyPath: m_LocalPosition.y
      value: 0
      objectReference: {fileID: 0}
    - target: {fileID: 8167212301778442102, guid: f48eea89053a5934e984b6850bada204,
        type: 3}
      propertyPath: m_LocalPosition.z
      value: 0
      objectReference: {fileID: 0}
    - target: {fileID: 8167212301778442102, guid: f48eea89053a5934e984b6850bada204,
        type: 3}
      propertyPath: m_LocalRotation.w
      value: 1
      objectReference: {fileID: 0}
    - target: {fileID: 8167212301778442102, guid: f48eea89053a5934e984b6850bada204,
        type: 3}
      propertyPath: m_LocalRotation.x
      value: -0
      objectReference: {fileID: 0}
    - target: {fileID: 8167212301778442102, guid: f48eea89053a5934e984b6850bada204,
        type: 3}
      propertyPath: m_LocalRotation.y
      value: -0
      objectReference: {fileID: 0}
    - target: {fileID: 8167212301778442102, guid: f48eea89053a5934e984b6850bada204,
        type: 3}
      propertyPath: m_LocalRotation.z
      value: -0
      objectReference: {fileID: 0}
    - target: {fileID: 8167212301778442102, guid: f48eea89053a5934e984b6850bada204,
        type: 3}
      propertyPath: m_AnchoredPosition.x
      value: 0
      objectReference: {fileID: 0}
    - target: {fileID: 8167212301778442102, guid: f48eea89053a5934e984b6850bada204,
        type: 3}
      propertyPath: m_AnchoredPosition.y
      value: 0
      objectReference: {fileID: 0}
    - target: {fileID: 8167212301778442102, guid: f48eea89053a5934e984b6850bada204,
        type: 3}
      propertyPath: m_LocalEulerAnglesHint.x
      value: 0
      objectReference: {fileID: 0}
    - target: {fileID: 8167212301778442102, guid: f48eea89053a5934e984b6850bada204,
        type: 3}
      propertyPath: m_LocalEulerAnglesHint.y
      value: 0
      objectReference: {fileID: 0}
    - target: {fileID: 8167212301778442102, guid: f48eea89053a5934e984b6850bada204,
        type: 3}
      propertyPath: m_LocalEulerAnglesHint.z
      value: 0
      objectReference: {fileID: 0}
    - target: {fileID: 9024294376076345224, guid: f48eea89053a5934e984b6850bada204,
        type: 3}
      propertyPath: activeStateTexture
      value: 
      objectReference: {fileID: 21300000, guid: ceec4794227328b459dc7e8da4f8589a,
        type: 3}
    - target: {fileID: 9024294376076345224, guid: f48eea89053a5934e984b6850bada204,
        type: 3}
      propertyPath: normalStateTexture
      value: 
      objectReference: {fileID: 21300000, guid: 34ebdb48cba566c4382edc82afe2c52b,
        type: 3}
    m_RemovedComponents:
    - {fileID: 9024294376076345224, guid: f48eea89053a5934e984b6850bada204, type: 3}
    m_RemovedGameObjects: []
    m_AddedGameObjects: []
    m_AddedComponents: []
  m_SourcePrefab: {fileID: 100100000, guid: f48eea89053a5934e984b6850bada204, type: 3}
