%YAML 1.1
%TAG !u! tag:unity3d.com,2011:
--- !u!1001 &7687442952405752776
PrefabInstance:
  m_ObjectHideFlags: 0
  serializedVersion: 2
  m_Modification:
    serializedVersion: 3
    m_TransformParent: {fileID: 0}
    m_Modifications:
    - target: {fileID: 665471672622089261, guid: 78fa37c036830884283f85d4d5a236cc,
        type: 3}
      propertyPath: m_SizeDelta.y
      value: 39.6545
      objectReference: {fileID: 0}
    - target: {fileID: 665471672622089261, guid: 78fa37c036830884283f85d4d5a236cc,
        type: 3}
      propertyPath: m_AnchoredPosition.y
      value: 1.6544
      objectReference: {fileID: 0}
    - target: {fileID: 1175379959870434465, guid: 78fa37c036830884283f85d4d5a236cc,
        type: 3}
      propertyPath: activeColor.b
      value: 0.1981132
      objectReference: {fileID: 0}
    - target: {fileID: 1175379959870434465, guid: 78fa37c036830884283f85d4d5a236cc,
        type: 3}
      propertyPath: activeColor.g
      value: 0.1981132
      objectReference: {fileID: 0}
    - target: {fileID: 1175379959870434465, guid: 78fa37c036830884283f85d4d5a236cc,
        type: 3}
      propertyPath: activeColor.r
      value: 0.1981132
      objectReference: {fileID: 0}
    - target: {fileID: 1175379959870434465, guid: 78fa37c036830884283f85d4d5a236cc,
        type: 3}
      propertyPath: tabActiveColor.b
      value: 0.16981131
      objectReference: {fileID: 0}
    - target: {fileID: 1175379959870434465, guid: 78fa37c036830884283f85d4d5a236cc,
        type: 3}
      propertyPath: tabActiveColor.g
      value: 0.16981131
      objectReference: {fileID: 0}
    - target: {fileID: 1175379959870434465, guid: 78fa37c036830884283f85d4d5a236cc,
        type: 3}
      propertyPath: tabActiveColor.r
      value: 0.16981131
      objectReference: {fileID: 0}
    - target: {fileID: 1175379959870434465, guid: 78fa37c036830884283f85d4d5a236cc,
        type: 3}
      propertyPath: tabInactiveColor.b
      value: 0.24528301
      objectReference: {fileID: 0}
    - target: {fileID: 1175379959870434465, guid: 78fa37c036830884283f85d4d5a236cc,
        type: 3}
      propertyPath: tabInactiveColor.g
      value: 0.24528301
      objectReference: {fileID: 0}
    - target: {fileID: 1175379959870434465, guid: 78fa37c036830884283f85d4d5a236cc,
        type: 3}
      propertyPath: tabInactiveColor.r
      value: 0.24528301
      objectReference: {fileID: 0}
    - target: {fileID: 1809539587077197994, guid: 78fa37c036830884283f85d4d5a236cc,
        type: 3}
      propertyPath: m_Text
      value: 
      objectReference: {fileID: 0}
    - target: {fileID: 4451565517434380619, guid: 78fa37c036830884283f85d4d5a236cc,
        type: 3}
      propertyPath: m_Name
      value: SelectionButton
      objectReference: {fileID: 0}
    - target: {fileID: 4770107822957911815, guid: 78fa37c036830884283f85d4d5a236cc,
        type: 3}
      propertyPath: m_Sprite
      value: 
      objectReference: {fileID: 21300000, guid: 0b3bbfcaaa58307468d4da68f758de52,
        type: 3}
    - target: {fileID: 7878004499118480939, guid: 78fa37c036830884283f85d4d5a236cc,
        type: 3}
      propertyPath: m_fontColor.b
      value: 0.8207547
      objectReference: {fileID: 0}
    - target: {fileID: 7878004499118480939, guid: 78fa37c036830884283f85d4d5a236cc,
        type: 3}
      propertyPath: m_fontColor.g
      value: 0.8207547
      objectReference: {fileID: 0}
    - target: {fileID: 7878004499118480939, guid: 78fa37c036830884283f85d4d5a236cc,
        type: 3}
      propertyPath: m_fontColor.r
      value: 0.8207547
      objectReference: {fileID: 0}
    - target: {fileID: 7878004499118480939, guid: 78fa37c036830884283f85d4d5a236cc,
        type: 3}
      propertyPath: m_fontColor32.rgba
      value: 4291940817
      objectReference: {fileID: 0}
    - target: {fileID: 8167212301778442102, guid: 78fa37c036830884283f85d4d5a236cc,
        type: 3}
      propertyPath: m_Pivot.x
      value: 1
      objectReference: {fileID: 0}
    - target: {fileID: 8167212301778442102, guid: 78fa37c036830884283f85d4d5a236cc,
        type: 3}
      propertyPath: m_Pivot.y
      value: 1
      objectReference: {fileID: 0}
    - target: {fileID: 8167212301778442102, guid: 78fa37c036830884283f85d4d5a236cc,
        type: 3}
      propertyPath: m_RootOrder
      value: 0
      objectReference: {fileID: 0}
    - target: {fileID: 8167212301778442102, guid: 78fa37c036830884283f85d4d5a236cc,
        type: 3}
      propertyPath: m_AnchorMax.x
      value: 1
      objectReference: {fileID: 0}
    - target: {fileID: 8167212301778442102, guid: 78fa37c036830884283f85d4d5a236cc,
        type: 3}
      propertyPath: m_AnchorMax.y
      value: 1
      objectReference: {fileID: 0}
    - target: {fileID: 8167212301778442102, guid: 78fa37c036830884283f85d4d5a236cc,
        type: 3}
      propertyPath: m_AnchorMin.x
      value: 1
      objectReference: {fileID: 0}
    - target: {fileID: 8167212301778442102, guid: 78fa37c036830884283f85d4d5a236cc,
        type: 3}
      propertyPath: m_AnchorMin.y
      value: 1
      objectReference: {fileID: 0}
    - target: {fileID: 8167212301778442102, guid: 78fa37c036830884283f85d4d5a236cc,
        type: 3}
      propertyPath: m_SizeDelta.x
      value: 360
      objectReference: {fileID: 0}
    - target: {fileID: 8167212301778442102, guid: 78fa37c036830884283f85d4d5a236cc,
        type: 3}
      propertyPath: m_SizeDelta.y
      value: 50
      objectReference: {fileID: 0}
    - target: {fileID: 8167212301778442102, guid: 78fa37c036830884283f85d4d5a236cc,
        type: 3}
      propertyPath: m_LocalPosition.x
      value: 0
      objectReference: {fileID: 0}
    - target: {fileID: 8167212301778442102, guid: 78fa37c036830884283f85d4d5a236cc,
        type: 3}
      propertyPath: m_LocalPosition.y
      value: 0
      objectReference: {fileID: 0}
    - target: {fileID: 8167212301778442102, guid: 78fa37c036830884283f85d4d5a236cc,
        type: 3}
      propertyPath: m_LocalPosition.z
      value: 0
      objectReference: {fileID: 0}
    - target: {fileID: 8167212301778442102, guid: 78fa37c036830884283f85d4d5a236cc,
        type: 3}
      propertyPath: m_LocalRotation.w
      value: 1
      objectReference: {fileID: 0}
    - target: {fileID: 8167212301778442102, guid: 78fa37c036830884283f85d4d5a236cc,
        type: 3}
      propertyPath: m_LocalRotation.x
      value: -0
      objectReference: {fileID: 0}
    - target: {fileID: 8167212301778442102, guid: 78fa37c036830884283f85d4d5a236cc,
        type: 3}
      propertyPath: m_LocalRotation.y
      value: -0
      objectReference: {fileID: 0}
    - target: {fileID: 8167212301778442102, guid: 78fa37c036830884283f85d4d5a236cc,
        type: 3}
      propertyPath: m_LocalRotation.z
      value: -0
      objectReference: {fileID: 0}
    - target: {fileID: 8167212301778442102, guid: 78fa37c036830884283f85d4d5a236cc,
        type: 3}
      propertyPath: m_AnchoredPosition.x
      value: 0
      objectReference: {fileID: 0}
    - target: {fileID: 8167212301778442102, guid: 78fa37c036830884283f85d4d5a236cc,
        type: 3}
      propertyPath: m_AnchoredPosition.y
      value: 0
      objectReference: {fileID: 0}
    - target: {fileID: 8167212301778442102, guid: 78fa37c036830884283f85d4d5a236cc,
        type: 3}
      propertyPath: m_LocalEulerAnglesHint.x
      value: 0
      objectReference: {fileID: 0}
    - target: {fileID: 8167212301778442102, guid: 78fa37c036830884283f85d4d5a236cc,
        type: 3}
      propertyPath: m_LocalEulerAnglesHint.y
      value: 0
      objectReference: {fileID: 0}
    - target: {fileID: 8167212301778442102, guid: 78fa37c036830884283f85d4d5a236cc,
        type: 3}
      propertyPath: m_LocalEulerAnglesHint.z
      value: 0
      objectReference: {fileID: 0}
    m_RemovedComponents: []
    m_RemovedGameObjects: []
    m_AddedGameObjects: []
    m_AddedComponents: []
  m_SourcePrefab: {fileID: 100100000, guid: 78fa37c036830884283f85d4d5a236cc, type: 3}
