%YAML 1.1
%TAG !u! tag:unity3d.com,2011:
--- !u!1001 &3358469806081489064
PrefabInstance:
  m_ObjectHideFlags: 0
  serializedVersion: 2
  m_Modification:
    serializedVersion: 2
    m_TransformParent: {fileID: 0}
    m_Modifications:
    - target: {fileID: 586444227512555781, guid: c5bc56c10696df013a516661785e1e18,
        type: 3}
      propertyPath: m_Volume
      value: 0.7
      objectReference: {fileID: 0}
    - target: {fileID: 586444227512555781, guid: c5bc56c10696df013a516661785e1e18,
        type: 3}
      propertyPath: m_audioClip
      value: 
      objectReference: {fileID: 8300000, guid: 98a1ac53c6916f2c3ac2ac513c9a2293, type: 3}
    - target: {fileID: 586444227512555781, guid: c5bc56c10696df013a516661785e1e18,
        type: 3}
      propertyPath: DopplerLevel
      value: 0.45
      objectReference: {fileID: 0}
    - target: {fileID: 2910462744097281411, guid: c5bc56c10696df013a516661785e1e18,
        type: 3}
      propertyPath: speed
      value: 750
      objectReference: {fileID: 0}
    - target: {fileID: 2910462744097281411, guid: c5bc56c10696df013a516661785e1e18,
        type: 3}
      propertyPath: damage
      value: 5
      objectReference: {fileID: 0}
    - target: {fileID: 2910462744097281411, guid: c5bc56c10696df013a516661785e1e18,
        type: 3}
      propertyPath: cooldown
      value: 0.9
      objectReference: {fileID: 0}
    - target: {fileID: 3400408932860819653, guid: c5bc56c10696df013a516661785e1e18,
        type: 3}
      propertyPath: weaponFirePrefab
      value: 
      objectReference: {fileID: 7968459379328885320, guid: 28635b0898964144c8669bb1c39d319e,
        type: 3}
    - target: {fileID: 3400408932860819653, guid: c5bc56c10696df013a516661785e1e18,
        type: 3}
      propertyPath: poolableObjectType
      value: 3
      objectReference: {fileID: 0}
    - target: {fileID: 3409199670541613308, guid: c5bc56c10696df013a516661785e1e18,
        type: 3}
      propertyPath: weaponFireFactory
      value: 
      objectReference: {fileID: 120193758412619885}
    - target: {fileID: 3920191927452710888, guid: c5bc56c10696df013a516661785e1e18,
        type: 3}
      propertyPath: m_RootOrder
      value: 0
      objectReference: {fileID: 0}
    - target: {fileID: 3920191927452710888, guid: c5bc56c10696df013a516661785e1e18,
        type: 3}
      propertyPath: m_LocalPosition.x
      value: 0
      objectReference: {fileID: 0}
    - target: {fileID: 3920191927452710888, guid: c5bc56c10696df013a516661785e1e18,
        type: 3}
      propertyPath: m_LocalPosition.y
      value: 0
      objectReference: {fileID: 0}
    - target: {fileID: 3920191927452710888, guid: c5bc56c10696df013a516661785e1e18,
        type: 3}
      propertyPath: m_LocalPosition.z
      value: 0
      objectReference: {fileID: 0}
    - target: {fileID: 3920191927452710888, guid: c5bc56c10696df013a516661785e1e18,
        type: 3}
      propertyPath: m_LocalRotation.w
      value: 1
      objectReference: {fileID: 0}
    - target: {fileID: 3920191927452710888, guid: c5bc56c10696df013a516661785e1e18,
        type: 3}
      propertyPath: m_LocalRotation.x
      value: 0
      objectReference: {fileID: 0}
    - target: {fileID: 3920191927452710888, guid: c5bc56c10696df013a516661785e1e18,
        type: 3}
      propertyPath: m_LocalRotation.y
      value: 0
      objectReference: {fileID: 0}
    - target: {fileID: 3920191927452710888, guid: c5bc56c10696df013a516661785e1e18,
        type: 3}
      propertyPath: m_LocalRotation.z
      value: 0
      objectReference: {fileID: 0}
    - target: {fileID: 3920191927452710888, guid: c5bc56c10696df013a516661785e1e18,
        type: 3}
      propertyPath: m_LocalEulerAnglesHint.x
      value: 0
      objectReference: {fileID: 0}
    - target: {fileID: 3920191927452710888, guid: c5bc56c10696df013a516661785e1e18,
        type: 3}
      propertyPath: m_LocalEulerAnglesHint.y
      value: 0
      objectReference: {fileID: 0}
    - target: {fileID: 3920191927452710888, guid: c5bc56c10696df013a516661785e1e18,
        type: 3}
      propertyPath: m_LocalEulerAnglesHint.z
      value: 0
      objectReference: {fileID: 0}
    - target: {fileID: 8340589927990560617, guid: c5bc56c10696df013a516661785e1e18,
        type: 3}
      propertyPath: m_Name
      value: RocketLauncher
      objectReference: {fileID: 0}
    - target: {fileID: 8340589927990560617, guid: c5bc56c10696df013a516661785e1e18,
        type: 3}
      propertyPath: m_TagString
      value: Untagged
      objectReference: {fileID: 0}
    m_RemovedComponents: []
    m_AddedGameObjects: []
  m_SourcePrefab: {fileID: 100100000, guid: c5bc56c10696df013a516661785e1e18, type: 3}
--- !u!114 &120193758412619885 stripped
MonoBehaviour:
  m_CorrespondingSourceObject: {fileID: 3400408932860819653, guid: c5bc56c10696df013a516661785e1e18,
    type: 3}
  m_PrefabInstance: {fileID: 3358469806081489064}
  m_PrefabAsset: {fileID: 0}
  m_GameObject: {fileID: 0}
  m_Enabled: 1
  m_EditorHideFlags: 0
  m_Script: {fileID: 11500000, guid: bf0d4cd7b8facef8fac7973440a9e372, type: 3}
  m_Name: 
  m_EditorClassIdentifier: 
