%YAML 1.1
%TAG !u! tag:unity3d.com,2011:
--- !u!78 &1
TagManager:
  serializedVersion: 2
  tags:
  - Drone
  - MotherShip
  - BotPlayer
  - hud
  - pauseMenu
  - endGame
  - ControlPoint
  - Asteroid
  - DronePath
  - FPSLabel
  - AsteroidMineralField
  - BotSpawner
  - Drones
  - buildMenu
  - Bots
  - playerDestroyedScreen
  - Buildings
  - BuildGrid
  - DroneSpawner
  - Music
  - BuildDroneButton
  - BuildMenuOverlayCanvas
  - PoolProvider
  - CursorController
  layers:
  - Default
  - TransparentFX
  - Ignore Raycast
  - 
  - Water
  - UI
  - 
  - 
  - IgnoreRaycastWeapons
  - Projectile
  - 
  - 
  - 
  - 
  - 
  - 
  - 
  - 
  - 
  - 
  - 
  - 
  - 
  - 
  - 
  - 
  - 
  - 
  - 
  - 
  - 
  - 
  m_SortingLayers:
  - name: Default
    uniqueID: 0
    locked: 0
