{
    "m_SGVersion": 3,
    "m_Type": "UnityEditor.ShaderGraph.GraphData",
    "m_ObjectId": "5397a6ac630f430396570b379ea23313",
    "m_Properties": [],
    "m_Keywords": [],
    "m_Dropdowns": [],
    "m_CategoryData": [
        {
            "m_Id": "120cf57dd66e4845816cbd4f5b3cf6b6"
        }
    ],
    "m_Nodes": [
        {
            "m_Id": "4a0e8f5ef152e38eaba4d803965b2986"
        },
        {
            "m_Id": "99d870f0ed063d869021050fbb0ee9d1"
        },
        {
            "m_Id": "325616a1a37104899d1d811835fe6a5c"
        },
        {
            "m_Id": "bfdcc1a1ade4b288b1499497b4259bb3"
        },
        {
            "m_Id": "49a0849debb3818595498a8533b82f98"
        },
        {
            "m_Id": "ff09e84cb5001e8cb35cb21d0f2584d0"
        }
    ],
    "m_GroupDatas": [
        {
            "m_Id": "0396521f43d946beb315559458a18116"
        },
        {
            "m_Id": "cbb6673d6b4048a496a610bf86d70650"
        }
    ],
    "m_StickyNoteDatas": [],
    "m_Edges": [
        {
            "m_OutputSlot": {
                "m_Node": {
                    "m_Id": "325616a1a37104899d1d811835fe6a5c"
                },
                "m_SlotId": 0
            },
            "m_InputSlot": {
                "m_Node": {
                    "m_Id": "99d870f0ed063d869021050fbb0ee9d1"
                },
                "m_SlotId": 0
            }
        },
        {
            "m_OutputSlot": {
                "m_Node": {
                    "m_Id": "49a0849debb3818595498a8533b82f98"
                },
                "m_SlotId": 0
            },
            "m_InputSlot": {
                "m_Node": {
                    "m_Id": "bfdcc1a1ade4b288b1499497b4259bb3"
                },
                "m_SlotId": 1
            }
        },
        {
            "m_OutputSlot": {
                "m_Node": {
                    "m_Id": "99d870f0ed063d869021050fbb0ee9d1"
                },
                "m_SlotId": 1
            },
            "m_InputSlot": {
                "m_Node": {
                    "m_Id": "4a0e8f5ef152e38eaba4d803965b2986"
                },
                "m_SlotId": 5
            }
        },
        {
            "m_OutputSlot": {
                "m_Node": {
                    "m_Id": "99d870f0ed063d869021050fbb0ee9d1"
                },
                "m_SlotId": 1
            },
            "m_InputSlot": {
                "m_Node": {
                    "m_Id": "bfdcc1a1ade4b288b1499497b4259bb3"
                },
                "m_SlotId": 0
            }
        },
        {
            "m_OutputSlot": {
                "m_Node": {
                    "m_Id": "99d870f0ed063d869021050fbb0ee9d1"
                },
                "m_SlotId": 2
            },
            "m_InputSlot": {
                "m_Node": {
                    "m_Id": "4a0e8f5ef152e38eaba4d803965b2986"
                },
                "m_SlotId": 1
            }
        },
        {
            "m_OutputSlot": {
                "m_Node": {
                    "m_Id": "99d870f0ed063d869021050fbb0ee9d1"
                },
                "m_SlotId": 4
            },
            "m_InputSlot": {
                "m_Node": {
                    "m_Id": "4a0e8f5ef152e38eaba4d803965b2986"
                },
                "m_SlotId": 2
            }
        },
        {
            "m_OutputSlot": {
                "m_Node": {
                    "m_Id": "bfdcc1a1ade4b288b1499497b4259bb3"
                },
                "m_SlotId": 2
            },
            "m_InputSlot": {
                "m_Node": {
                    "m_Id": "ff09e84cb5001e8cb35cb21d0f2584d0"
                },
                "m_SlotId": 0
            }
        },
        {
            "m_OutputSlot": {
                "m_Node": {
                    "m_Id": "ff09e84cb5001e8cb35cb21d0f2584d0"
                },
                "m_SlotId": 3
            },
            "m_InputSlot": {
                "m_Node": {
                    "m_Id": "4a0e8f5ef152e38eaba4d803965b2986"
                },
                "m_SlotId": 3
            }
        }
    ],
    "m_VertexContext": {
        "m_Position": {
            "x": 858.9999389648438,
            "y": -450.9999694824219
        },
        "m_Blocks": []
    },
    "m_FragmentContext": {
        "m_Position": {
            "x": 858.9999389648438,
            "y": -250.99996948242188
        },
        "m_Blocks": []
    },
    "m_PreviewData": {
        "serializedMesh": {
            "m_SerializedMesh": "{\"mesh\":{\"instanceID\":0}}",
            "m_Guid": ""
        },
        "preventRotation": false
    },
    "m_Path": "Sub Graphs",
    "m_GraphPrecision": 0,
    "m_PreviewMode": 2,
    "m_OutputNode": {
        "m_Id": "4a0e8f5ef152e38eaba4d803965b2986"
    },
    "m_ActiveTargets": []
}

{
    "m_SGVersion": 0,
    "m_Type": "UnityEditor.ShaderGraph.GroupData",
    "m_ObjectId": "0396521f43d946beb315559458a18116",
    "m_Title": "Main Light",
    "m_Position": {
        "x": -1746.0,
        "y": -617.9999389648438
    }
}

{
    "m_SGVersion": 0,
    "m_Type": "UnityEditor.ShaderGraph.Vector3MaterialSlot",
    "m_ObjectId": "09884631cf51a9839ed3fb1af5ed892c",
    "m_Id": 0,
    "m_DisplayName": "Out",
    "m_SlotType": 1,
    "m_Hidden": false,
    "m_ShaderOutputName": "Out",
    "m_StageCapability": 3,
    "m_Value": {
        "x": 0.0,
        "y": 0.0,
        "z": 0.0
    },
    "m_DefaultValue": {
        "x": 0.0,
        "y": 0.0,
        "z": 0.0
    },
    "m_Labels": [
        "X",
        "Y",
        "Z"
    ]
}

{
    "m_SGVersion": 0,
    "m_Type": "UnityEditor.ShaderGraph.CategoryData",
    "m_ObjectId": "120cf57dd66e4845816cbd4f5b3cf6b6",
    "m_Name": "",
    "m_ChildObjectList": []
}

{
    "m_SGVersion": 1,
    "m_Type": "UnityEditor.ShaderGraph.PositionNode",
    "m_ObjectId": "325616a1a37104899d1d811835fe6a5c",
    "m_Group": {
        "m_Id": "0396521f43d946beb315559458a18116"
    },
    "m_Name": "Position",
    "m_DrawState": {
        "m_Expanded": true,
        "m_Position": {
            "serializedVersion": "2",
            "x": -726.5,
            "y": -455.5000305175781,
            "width": 206.0,
            "height": 130.0
        }
    },
    "m_Slots": [
        {
            "m_Id": "09884631cf51a9839ed3fb1af5ed892c"
        }
    ],
    "synonyms": [
        "location"
    ],
    "m_Precision": 1,
    "m_PreviewExpanded": false,
    "m_DismissedVersion": 0,
    "m_PreviewMode": 2,
    "m_CustomColors": {
        "m_SerializableColors": []
    },
    "m_Space": 4,
    "m_PositionSource": 0
}

{
    "m_SGVersion": 0,
    "m_Type": "UnityEditor.ShaderGraph.Vector3MaterialSlot",
    "m_ObjectId": "3680fa313869ea8ea12f7f2bb20e0b4d",
    "m_Id": 0,
    "m_DisplayName": "WorldPos",
    "m_SlotType": 0,
    "m_Hidden": false,
    "m_ShaderOutputName": "WorldPos",
    "m_StageCapability": 3,
    "m_Value": {
        "x": 0.0,
        "y": 0.0,
        "z": 0.0
    },
    "m_DefaultValue": {
        "x": 0.0,
        "y": 0.0,
        "z": 0.0
    },
    "m_Labels": [
        "X",
        "Y",
        "Z"
    ]
}

{
    "m_SGVersion": 0,
    "m_Type": "UnityEditor.ShaderGraph.Vector1MaterialSlot",
    "m_ObjectId": "388e0d804e0c5f80b2937321d50eb95c",
    "m_Id": 2,
    "m_DisplayName": "ShadowAttenuation",
    "m_SlotType": 0,
    "m_Hidden": false,
    "m_ShaderOutputName": "ShadowAttenuation",
    "m_StageCapability": 3,
    "m_Value": 0.0,
    "m_DefaultValue": 0.0,
    "m_Labels": [
        "X"
    ]
}

{
    "m_SGVersion": 0,
    "m_Type": "UnityEditor.ShaderGraph.Vector3MaterialSlot",
    "m_ObjectId": "3c7288795adae686918a816520ee4db1",
    "m_Id": 1,
    "m_DisplayName": "Color",
    "m_SlotType": 0,
    "m_Hidden": false,
    "m_ShaderOutputName": "Color",
    "m_StageCapability": 3,
    "m_Value": {
        "x": 0.0,
        "y": 0.0,
        "z": 0.0
    },
    "m_DefaultValue": {
        "x": 0.0,
        "y": 0.0,
        "z": 0.0
    },
    "m_Labels": [
        "X",
        "Y",
        "Z"
    ]
}

{
    "m_SGVersion": 0,
    "m_Type": "UnityEditor.ShaderGraph.Vector3MaterialSlot",
    "m_ObjectId": "3ce4b1b29f37038fbfe9689b2094a026",
    "m_Id": 2,
    "m_DisplayName": "Color",
    "m_SlotType": 1,
    "m_Hidden": false,
    "m_ShaderOutputName": "Color",
    "m_StageCapability": 3,
    "m_Value": {
        "x": 0.0,
        "y": 0.0,
        "z": 0.0
    },
    "m_DefaultValue": {
        "x": 0.0,
        "y": 0.0,
        "z": 0.0
    },
    "m_Labels": [
        "X",
        "Y",
        "Z"
    ]
}

{
    "m_SGVersion": 0,
    "m_Type": "UnityEditor.ShaderGraph.Vector1MaterialSlot",
    "m_ObjectId": "42c5bc2535802084a5be0d230d97607f",
    "m_Id": 3,
    "m_DisplayName": "SelfShadowing",
    "m_SlotType": 0,
    "m_Hidden": false,
    "m_ShaderOutputName": "SelfShadowing",
    "m_StageCapability": 3,
    "m_Value": 0.0,
    "m_DefaultValue": 0.0,
    "m_Labels": [
        "X"
    ]
}

{
    "m_SGVersion": 0,
    "m_Type": "UnityEditor.ShaderGraph.NormalVectorNode",
    "m_ObjectId": "49a0849debb3818595498a8533b82f98",
    "m_Group": {
        "m_Id": "cbb6673d6b4048a496a610bf86d70650"
    },
    "m_Name": "Normal Vector",
    "m_DrawState": {
        "m_Expanded": true,
        "m_Position": {
            "serializedVersion": "2",
            "x": 13.000070571899414,
            "y": -139.00003051757813,
            "width": 207.99998474121095,
            "height": 314.9999694824219
        }
    },
    "m_Slots": [
        {
            "m_Id": "54f92b68aa52e08f938b9bb34ed4ebdb"
        }
    ],
    "synonyms": [
        "surface direction"
    ],
    "m_Precision": 0,
    "m_PreviewExpanded": true,
    "m_DismissedVersion": 0,
    "m_PreviewMode": 2,
    "m_CustomColors": {
        "m_SerializableColors": []
    },
    "m_Space": 2
}

{
    "m_SGVersion": 0,
    "m_Type": "UnityEditor.ShaderGraph.SubGraphOutputNode",
    "m_ObjectId": "4a0e8f5ef152e38eaba4d803965b2986",
    "m_Group": {
        "m_Id": ""
    },
    "m_Name": "Out_Vector1 (1)",
    "m_DrawState": {
        "m_Expanded": true,
        "m_Position": {
            "serializedVersion": "2",
            "x": 858.9999389648438,
            "y": -450.9999694824219,
            "width": 167.0,
            "height": 149.0
        }
    },
    "m_Slots": [
        {
            "m_Id": "60c0645a8beb7b8190be930a64e6f64a"
        },
        {
            "m_Id": "3c7288795adae686918a816520ee4db1"
        },
        {
            "m_Id": "388e0d804e0c5f80b2937321d50eb95c"
        },
        {
            "m_Id": "42c5bc2535802084a5be0d230d97607f"
        }
    ],
    "synonyms": [],
    "m_Precision": 0,
    "m_PreviewExpanded": true,
    "m_DismissedVersion": 0,
    "m_PreviewMode": 0,
    "m_CustomColors": {
        "m_SerializableColors": []
    },
    "IsFirstSlotValid": true
}

{
    "m_SGVersion": 0,
    "m_Type": "UnityEditor.ShaderGraph.Vector3MaterialSlot",
    "m_ObjectId": "54f92b68aa52e08f938b9bb34ed4ebdb",
    "m_Id": 0,
    "m_DisplayName": "Out",
    "m_SlotType": 1,
    "m_Hidden": false,
    "m_ShaderOutputName": "Out",
    "m_StageCapability": 3,
    "m_Value": {
        "x": 0.0,
        "y": 0.0,
        "z": 1.0
    },
    "m_DefaultValue": {
        "x": 0.0,
        "y": 0.0,
        "z": 0.0
    },
    "m_Labels": [
        "X",
        "Y",
        "Z"
    ]
}

{
    "m_SGVersion": 0,
    "m_Type": "UnityEditor.ShaderGraph.Vector3MaterialSlot",
    "m_ObjectId": "60c0645a8beb7b8190be930a64e6f64a",
    "m_Id": 5,
    "m_DisplayName": "Direction",
    "m_SlotType": 0,
    "m_Hidden": false,
    "m_ShaderOutputName": "Direction",
    "m_StageCapability": 3,
    "m_Value": {
        "x": 0.0,
        "y": 0.0,
        "z": 0.0
    },
    "m_DefaultValue": {
        "x": 0.0,
        "y": 0.0,
        "z": 0.0
    },
    "m_Labels": [
        "X",
        "Y",
        "Z"
    ]
}

{
    "m_SGVersion": 0,
    "m_Type": "UnityEditor.ShaderGraph.DynamicVectorMaterialSlot",
    "m_ObjectId": "661c6397b697228d9ee4d31d61d404c8",
    "m_Id": 0,
    "m_DisplayName": "In",
    "m_SlotType": 0,
    "m_Hidden": false,
    "m_ShaderOutputName": "In",
    "m_StageCapability": 3,
    "m_Value": {
        "x": 0.0,
        "y": 0.0,
        "z": 0.0,
        "w": 0.0
    },
    "m_DefaultValue": {
        "x": 0.0,
        "y": 0.0,
        "z": 0.0,
        "w": 0.0
    }
}

{
    "m_SGVersion": 0,
    "m_Type": "UnityEditor.ShaderGraph.DynamicVectorMaterialSlot",
    "m_ObjectId": "66a6966bc29f078a9364abcec409c8e8",
    "m_Id": 0,
    "m_DisplayName": "A",
    "m_SlotType": 0,
    "m_Hidden": false,
    "m_ShaderOutputName": "A",
    "m_StageCapability": 3,
    "m_Value": {
        "x": 0.0,
        "y": 0.0,
        "z": 0.0,
        "w": 0.0
    },
    "m_DefaultValue": {
        "x": 0.0,
        "y": 0.0,
        "z": 0.0,
        "w": 0.0
    }
}

{
    "m_SGVersion": 0,
    "m_Type": "UnityEditor.ShaderGraph.DynamicVectorMaterialSlot",
    "m_ObjectId": "888fbf2f87d32981a6ed7e0f903d2837",
    "m_Id": 3,
    "m_DisplayName": "Out",
    "m_SlotType": 1,
    "m_Hidden": false,
    "m_ShaderOutputName": "Out",
    "m_StageCapability": 3,
    "m_Value": {
        "x": 0.0,
        "y": 0.0,
        "z": 0.0,
        "w": 0.0
    },
    "m_DefaultValue": {
        "x": 0.0,
        "y": 0.0,
        "z": 0.0,
        "w": 0.0
    }
}

{
    "m_SGVersion": 1,
    "m_Type": "UnityEditor.ShaderGraph.CustomFunctionNode",
    "m_ObjectId": "99d870f0ed063d869021050fbb0ee9d1",
    "m_Group": {
        "m_Id": "0396521f43d946beb315559458a18116"
    },
    "m_Name": "MainLight (Custom Function)",
    "m_DrawState": {
        "m_Expanded": true,
        "m_Position": {
            "serializedVersion": "2",
            "x": -475.5,
            "y": -456.50006103515627,
            "width": 238.0,
            "height": 350.0
        }
    },
    "m_Slots": [
        {
            "m_Id": "3680fa313869ea8ea12f7f2bb20e0b4d"
        },
        {
            "m_Id": "b6d16edbbc367b84ac35c2d04d84cbcb"
        },
        {
            "m_Id": "3ce4b1b29f37038fbfe9689b2094a026"
        },
        {
            "m_Id": "ded6a4bf2ac9c08fb990e6470d4362e5"
        }
    ],
    "synonyms": [
        "code",
        "HLSL"
    ],
    "m_Precision": 0,
    "m_PreviewExpanded": true,
    "m_DismissedVersion": 0,
    "m_PreviewMode": 0,
    "m_CustomColors": {
        "m_SerializableColors": []
    },
    "m_SourceType": 0,
    "m_FunctionName": "MainLight",
    "m_FunctionSource": "6694b2db167398cbb96d6b3f9c412717",
    "m_FunctionBody": "Enter function body here..."
}

{
    "m_SGVersion": 0,
    "m_Type": "UnityEditor.ShaderGraph.Vector1MaterialSlot",
    "m_ObjectId": "b3bdfda7f7d66f84832faacf512f9c39",
    "m_Id": 2,
    "m_DisplayName": "Out",
    "m_SlotType": 1,
    "m_Hidden": false,
    "m_ShaderOutputName": "Out",
    "m_StageCapability": 3,
    "m_Value": 0.0,
    "m_DefaultValue": 0.0,
    "m_Labels": [
        "X"
    ]
}

{
    "m_SGVersion": 0,
    "m_Type": "UnityEditor.ShaderGraph.Vector3MaterialSlot",
    "m_ObjectId": "b6d16edbbc367b84ac35c2d04d84cbcb",
    "m_Id": 1,
    "m_DisplayName": "Direction",
    "m_SlotType": 1,
    "m_Hidden": false,
    "m_ShaderOutputName": "Direction",
    "m_StageCapability": 3,
    "m_Value": {
        "x": 0.0,
        "y": 0.0,
        "z": 0.0
    },
    "m_DefaultValue": {
        "x": 0.0,
        "y": 0.0,
        "z": 0.0
    },
    "m_Labels": [
        "X",
        "Y",
        "Z"
    ]
}

{
    "m_SGVersion": 0,
    "m_Type": "UnityEditor.ShaderGraph.DotProductNode",
    "m_ObjectId": "bfdcc1a1ade4b288b1499497b4259bb3",
    "m_Group": {
        "m_Id": "cbb6673d6b4048a496a610bf86d70650"
    },
    "m_Name": "Dot Product",
    "m_DrawState": {
        "m_Expanded": true,
        "m_Position": {
            "serializedVersion": "2",
            "x": 262.0000305175781,
            "y": -162.00001525878907,
            "width": 136.99998474121095,
            "height": 117.99999237060547
        }
    },
    "m_Slots": [
        {
            "m_Id": "66a6966bc29f078a9364abcec409c8e8"
        },
        {
            "m_Id": "cec633b9da80a080a572878221aa306b"
        },
        {
            "m_Id": "b3bdfda7f7d66f84832faacf512f9c39"
        }
    ],
    "synonyms": [
        "scalar product"
    ],
    "m_Precision": 0,
    "m_PreviewExpanded": false,
    "m_DismissedVersion": 0,
    "m_PreviewMode": 0,
    "m_CustomColors": {
        "m_SerializableColors": []
    }
}

{
    "m_SGVersion": 0,
    "m_Type": "UnityEditor.ShaderGraph.GroupData",
    "m_ObjectId": "cbb6673d6b4048a496a610bf86d70650",
    "m_Title": "Self shadowing",
    "m_Position": {
        "x": -11.999814987182618,
        "y": -222.0
    }
}

{
    "m_SGVersion": 0,
    "m_Type": "UnityEditor.ShaderGraph.DynamicVectorMaterialSlot",
    "m_ObjectId": "cec633b9da80a080a572878221aa306b",
    "m_Id": 1,
    "m_DisplayName": "B",
    "m_SlotType": 0,
    "m_Hidden": false,
    "m_ShaderOutputName": "B",
    "m_StageCapability": 3,
    "m_Value": {
        "x": 0.0,
        "y": 1.0,
        "z": 0.0,
        "w": 0.0
    },
    "m_DefaultValue": {
        "x": 0.0,
        "y": 0.0,
        "z": 0.0,
        "w": 0.0
    }
}

{
    "m_SGVersion": 0,
    "m_Type": "UnityEditor.ShaderGraph.Vector1MaterialSlot",
    "m_ObjectId": "ded6a4bf2ac9c08fb990e6470d4362e5",
    "m_Id": 4,
    "m_DisplayName": "ShadowAtten",
    "m_SlotType": 1,
    "m_Hidden": false,
    "m_ShaderOutputName": "ShadowAtten",
    "m_StageCapability": 3,
    "m_Value": 0.0,
    "m_DefaultValue": 0.0,
    "m_Labels": [
        "X"
    ]
}

{
    "m_SGVersion": 0,
    "m_Type": "UnityEditor.ShaderGraph.DynamicVectorMaterialSlot",
    "m_ObjectId": "ebf503d90577958da67aff4a043b6182",
    "m_Id": 2,
    "m_DisplayName": "Max",
    "m_SlotType": 0,
    "m_Hidden": false,
    "m_ShaderOutputName": "Max",
    "m_StageCapability": 3,
    "m_Value": {
        "x": 1.0,
        "y": 1.0,
        "z": 1.0,
        "w": 1.0
    },
    "m_DefaultValue": {
        "x": 0.0,
        "y": 0.0,
        "z": 0.0,
        "w": 0.0
    }
}

{
    "m_SGVersion": 0,
    "m_Type": "UnityEditor.ShaderGraph.DynamicVectorMaterialSlot",
    "m_ObjectId": "ec0848528530c08499f37964717d7e54",
    "m_Id": 1,
    "m_DisplayName": "Min",
    "m_SlotType": 0,
    "m_Hidden": false,
    "m_ShaderOutputName": "Min",
    "m_StageCapability": 3,
    "m_Value": {
        "x": 0.0,
        "y": 0.0,
        "z": 0.0,
        "w": 0.0
    },
    "m_DefaultValue": {
        "x": 0.0,
        "y": 0.0,
        "z": 0.0,
        "w": 0.0
    }
}

{
    "m_SGVersion": 0,
    "m_Type": "UnityEditor.ShaderGraph.ClampNode",
    "m_ObjectId": "ff09e84cb5001e8cb35cb21d0f2584d0",
    "m_Group": {
        "m_Id": "cbb6673d6b4048a496a610bf86d70650"
    },
    "m_Name": "Clamp",
    "m_DrawState": {
        "m_Expanded": true,
        "m_Position": {
            "serializedVersion": "2",
            "x": 495.0000305175781,
            "y": -160.00001525878907,
            "width": 151.0,
            "height": 142.0
        }
    },
    "m_Slots": [
        {
            "m_Id": "661c6397b697228d9ee4d31d61d404c8"
        },
        {
            "m_Id": "ec0848528530c08499f37964717d7e54"
        },
        {
            "m_Id": "ebf503d90577958da67aff4a043b6182"
        },
        {
            "m_Id": "888fbf2f87d32981a6ed7e0f903d2837"
        }
    ],
    "synonyms": [
        "limit"
    ],
    "m_Precision": 0,
    "m_PreviewExpanded": false,
    "m_DismissedVersion": 0,
    "m_PreviewMode": 0,
    "m_CustomColors": {
        "m_SerializableColors": []
    }
}

