%YAML 1.1
%TAG !u! tag:unity3d.com,2011:
--- !u!1001 &8249689688137876055
PrefabInstance:
  m_ObjectHideFlags: 0
  serializedVersion: 2
  m_Modification:
    m_TransformParent: {fileID: 0}
    m_Modifications:
    - target: {fileID: 1741521025356210339, guid: 47d93919ff4f70a44b58f2605c240fd9,
        type: 3}
      propertyPath: m_LocalPosition.x
      value: 0
      objectReference: {fileID: 0}
    - target: {fileID: 1741521025356210339, guid: 47d93919ff4f70a44b58f2605c240fd9,
        type: 3}
      propertyPath: m_LocalPosition.y
      value: 0
      objectReference: {fileID: 0}
    - target: {fileID: 1741521025356210339, guid: 47d93919ff4f70a44b58f2605c240fd9,
        type: 3}
      propertyPath: m_LocalPosition.z
      value: 0
      objectReference: {fileID: 0}
    - target: {fileID: 1741521025356210339, guid: 47d93919ff4f70a44b58f2605c240fd9,
        type: 3}
      propertyPath: m_LocalRotation.x
      value: 0
      objectReference: {fileID: 0}
    - target: {fileID: 1741521025356210339, guid: 47d93919ff4f70a44b58f2605c240fd9,
        type: 3}
      propertyPath: m_LocalRotation.y
      value: 0
      objectReference: {fileID: 0}
    - target: {fileID: 1741521025356210339, guid: 47d93919ff4f70a44b58f2605c240fd9,
        type: 3}
      propertyPath: m_LocalRotation.z
      value: 0
      objectReference: {fileID: 0}
    - target: {fileID: 1741521025356210339, guid: 47d93919ff4f70a44b58f2605c240fd9,
        type: 3}
      propertyPath: m_LocalRotation.w
      value: 1
      objectReference: {fileID: 0}
    - target: {fileID: 1741521025356210339, guid: 47d93919ff4f70a44b58f2605c240fd9,
        type: 3}
      propertyPath: m_RootOrder
      value: 0
      objectReference: {fileID: 0}
    - target: {fileID: 1741521025356210339, guid: 47d93919ff4f70a44b58f2605c240fd9,
        type: 3}
      propertyPath: m_LocalEulerAnglesHint.x
      value: 0
      objectReference: {fileID: 0}
    - target: {fileID: 1741521025356210339, guid: 47d93919ff4f70a44b58f2605c240fd9,
        type: 3}
      propertyPath: m_LocalEulerAnglesHint.y
      value: 0
      objectReference: {fileID: 0}
    - target: {fileID: 1741521025356210339, guid: 47d93919ff4f70a44b58f2605c240fd9,
        type: 3}
      propertyPath: m_LocalEulerAnglesHint.z
      value: 0
      objectReference: {fileID: 0}
    - target: {fileID: 1741521025356210339, guid: 47d93919ff4f70a44b58f2605c240fd9,
        type: 3}
      propertyPath: m_AnchoredPosition.x
      value: 0
      objectReference: {fileID: 0}
    - target: {fileID: 1741521025356210339, guid: 47d93919ff4f70a44b58f2605c240fd9,
        type: 3}
      propertyPath: m_AnchoredPosition.y
      value: 0
      objectReference: {fileID: 0}
    - target: {fileID: 1741521025356210339, guid: 47d93919ff4f70a44b58f2605c240fd9,
        type: 3}
      propertyPath: m_SizeDelta.x
      value: 100
      objectReference: {fileID: 0}
    - target: {fileID: 1741521025356210339, guid: 47d93919ff4f70a44b58f2605c240fd9,
        type: 3}
      propertyPath: m_SizeDelta.y
      value: 14
      objectReference: {fileID: 0}
    - target: {fileID: 1741521025356210339, guid: 47d93919ff4f70a44b58f2605c240fd9,
        type: 3}
      propertyPath: m_AnchorMin.x
      value: 0.5
      objectReference: {fileID: 0}
    - target: {fileID: 1741521025356210339, guid: 47d93919ff4f70a44b58f2605c240fd9,
        type: 3}
      propertyPath: m_AnchorMin.y
      value: 1
      objectReference: {fileID: 0}
    - target: {fileID: 1741521025356210339, guid: 47d93919ff4f70a44b58f2605c240fd9,
        type: 3}
      propertyPath: m_AnchorMax.x
      value: 0.5
      objectReference: {fileID: 0}
    - target: {fileID: 1741521025356210339, guid: 47d93919ff4f70a44b58f2605c240fd9,
        type: 3}
      propertyPath: m_AnchorMax.y
      value: 1
      objectReference: {fileID: 0}
    - target: {fileID: 1741521025356210339, guid: 47d93919ff4f70a44b58f2605c240fd9,
        type: 3}
      propertyPath: m_Pivot.x
      value: 0.5
      objectReference: {fileID: 0}
    - target: {fileID: 1741521025356210339, guid: 47d93919ff4f70a44b58f2605c240fd9,
        type: 3}
      propertyPath: m_Pivot.y
      value: 1
      objectReference: {fileID: 0}
    - target: {fileID: 4539541535445026523, guid: 47d93919ff4f70a44b58f2605c240fd9,
        type: 3}
      propertyPath: m_Name
      value: TurretTargetDisplay
      objectReference: {fileID: 0}
    - target: {fileID: 5342494318415189557, guid: 47d93919ff4f70a44b58f2605c240fd9,
        type: 3}
      propertyPath: m_Sprite
      value: 
      objectReference: {fileID: 21300000, guid: 591301b0d1d4c005381e632d3ca935b9,
        type: 3}
    - target: {fileID: 5342494318415189557, guid: 47d93919ff4f70a44b58f2605c240fd9,
        type: 3}
      propertyPath: m_Color.r
      value: 0
      objectReference: {fileID: 0}
    - target: {fileID: 5342494318415189557, guid: 47d93919ff4f70a44b58f2605c240fd9,
        type: 3}
      propertyPath: m_Color.g
      value: 0.45882353
      objectReference: {fileID: 0}
    - target: {fileID: 5342494318415189557, guid: 47d93919ff4f70a44b58f2605c240fd9,
        type: 3}
      propertyPath: m_Color.b
      value: 0.9490196
      objectReference: {fileID: 0}
    m_RemovedComponents: []
  m_SourcePrefab: {fileID: 100100000, guid: 47d93919ff4f70a44b58f2605c240fd9, type: 3}
