%YAML 1.1
%TAG !u! tag:unity3d.com,2011:
--- !u!114 &7043631174687606867
MonoBehaviour:
  m_ObjectHideFlags: 0
  m_CorrespondingSourceObject: {fileID: 0}
  m_PrefabInstance: {fileID: 0}
  m_PrefabAsset: {fileID: 0}
  m_GameObject: {fileID: 6327994787215345005}
  m_Enabled: 1
  m_EditorHideFlags: 0
  m_Script: {fileID: 11500000, guid: 1e112853a5163e846883332d3b9afa7f, type: 3}
  m_Name: 
  m_EditorClassIdentifier: 
  botWeapon: {fileID: 0}
--- !u!114 &7880713360103442375
MonoBehaviour:
  m_ObjectHideFlags: 0
  m_CorrespondingSourceObject: {fileID: 0}
  m_PrefabInstance: {fileID: 0}
  m_PrefabAsset: {fileID: 0}
  m_GameObject: {fileID: 6327994787215345005}
  m_Enabled: 1
  m_EditorHideFlags: 0
  m_Script: {fileID: 11500000, guid: a80f6ac2a0685687ea19afde36469b8c, type: 3}
  m_Name: 
  m_EditorClassIdentifier: 
  collisionCheckPoints: []
  targetLocation: {x: 0, y: 0, z: 0}
--- !u!1001 &8081571392214897743
PrefabInstance:
  m_ObjectHideFlags: 0
  serializedVersion: 2
  m_Modification:
    m_TransformParent: {fileID: 0}
    m_Modifications:
    - target: {fileID: 1273769099474101041, guid: 0a9935a3dc76dfbd0a5c28037e4b132a,
        type: 3}
      propertyPath: m_RootOrder
      value: 0
      objectReference: {fileID: 0}
    - target: {fileID: 1273769099474101041, guid: 0a9935a3dc76dfbd0a5c28037e4b132a,
        type: 3}
      propertyPath: m_LocalPosition.x
      value: 0
      objectReference: {fileID: 0}
    - target: {fileID: 1273769099474101041, guid: 0a9935a3dc76dfbd0a5c28037e4b132a,
        type: 3}
      propertyPath: m_LocalPosition.y
      value: 0
      objectReference: {fileID: 0}
    - target: {fileID: 1273769099474101041, guid: 0a9935a3dc76dfbd0a5c28037e4b132a,
        type: 3}
      propertyPath: m_LocalPosition.z
      value: 0
      objectReference: {fileID: 0}
    - target: {fileID: 1273769099474101041, guid: 0a9935a3dc76dfbd0a5c28037e4b132a,
        type: 3}
      propertyPath: m_LocalRotation.w
      value: 1
      objectReference: {fileID: 0}
    - target: {fileID: 1273769099474101041, guid: 0a9935a3dc76dfbd0a5c28037e4b132a,
        type: 3}
      propertyPath: m_LocalRotation.x
      value: 0
      objectReference: {fileID: 0}
    - target: {fileID: 1273769099474101041, guid: 0a9935a3dc76dfbd0a5c28037e4b132a,
        type: 3}
      propertyPath: m_LocalRotation.y
      value: 0
      objectReference: {fileID: 0}
    - target: {fileID: 1273769099474101041, guid: 0a9935a3dc76dfbd0a5c28037e4b132a,
        type: 3}
      propertyPath: m_LocalRotation.z
      value: 0
      objectReference: {fileID: 0}
    - target: {fileID: 1273769099474101041, guid: 0a9935a3dc76dfbd0a5c28037e4b132a,
        type: 3}
      propertyPath: m_LocalEulerAnglesHint.x
      value: 0
      objectReference: {fileID: 0}
    - target: {fileID: 1273769099474101041, guid: 0a9935a3dc76dfbd0a5c28037e4b132a,
        type: 3}
      propertyPath: m_LocalEulerAnglesHint.y
      value: 0
      objectReference: {fileID: 0}
    - target: {fileID: 1273769099474101041, guid: 0a9935a3dc76dfbd0a5c28037e4b132a,
        type: 3}
      propertyPath: m_LocalEulerAnglesHint.z
      value: 0
      objectReference: {fileID: 0}
    - target: {fileID: 2879506499306197282, guid: 0a9935a3dc76dfbd0a5c28037e4b132a,
        type: 3}
      propertyPath: m_Name
      value: BotShipBase
      objectReference: {fileID: 0}
    - target: {fileID: 4327152288647965481, guid: 0a9935a3dc76dfbd0a5c28037e4b132a,
        type: 3}
      propertyPath: isEnemy
      value: 1
      objectReference: {fileID: 0}
    - target: {fileID: 4854069230334511848, guid: 0a9935a3dc76dfbd0a5c28037e4b132a,
        type: 3}
      propertyPath: spawnInvincibilityTime
      value: 0
      objectReference: {fileID: 0}
    m_RemovedComponents: []
  m_SourcePrefab: {fileID: 100100000, guid: 0a9935a3dc76dfbd0a5c28037e4b132a, type: 3}
--- !u!1 &6327994787215345005 stripped
GameObject:
  m_CorrespondingSourceObject: {fileID: 2879506499306197282, guid: 0a9935a3dc76dfbd0a5c28037e4b132a,
    type: 3}
  m_PrefabInstance: {fileID: 8081571392214897743}
  m_PrefabAsset: {fileID: 0}
