%YAML 1.1
%TAG !u! tag:unity3d.com,2011:
--- !u!1 &6435377162541544604
GameObject:
  m_ObjectHideFlags: 0
  m_CorrespondingSourceObject: {fileID: 0}
  m_PrefabInstance: {fileID: 0}
  m_PrefabAsset: {fileID: 0}
  serializedVersion: 6
  m_Component:
  - component: {fileID: 6435377162541544607}
  - component: {fileID: 9147021597991472699}
  - component: {fileID: 8866982584472749629}
  m_Layer: 0
  m_Name: AsteroidGenerator
  m_TagString: Untagged
  m_Icon: {fileID: 0}
  m_NavMeshLayer: 0
  m_StaticEditorFlags: 4294967295
  m_IsActive: 1
--- !u!4 &6435377162541544607
Transform:
  m_ObjectHideFlags: 0
  m_CorrespondingSourceObject: {fileID: 0}
  m_PrefabInstance: {fileID: 0}
  m_PrefabAsset: {fileID: 0}
  m_GameObject: {fileID: 6435377162541544604}
  m_LocalRotation: {x: 0, y: 0, z: 0, w: 1}
  m_LocalPosition: {x: 0, y: 0, z: 0}
  m_LocalScale: {x: 1, y: 1, z: 1}
  m_ConstrainProportionsScale: 0
  m_Children: []
  m_Father: {fileID: 0}
  m_RootOrder: 0
  m_LocalEulerAnglesHint: {x: 0, y: 0, z: 0}
--- !u!114 &9147021597991472699
MonoBehaviour:
  m_ObjectHideFlags: 0
  m_CorrespondingSourceObject: {fileID: 0}
  m_PrefabInstance: {fileID: 0}
  m_PrefabAsset: {fileID: 0}
  m_GameObject: {fileID: 6435377162541544604}
  m_Enabled: 1
  m_EditorHideFlags: 0
  m_Script: {fileID: 11500000, guid: 284993eddb8a92919add99b26c68119c, type: 3}
  m_Name: 
  m_EditorClassIdentifier: 
  count: 100
  minSize: 100
  maxSize: 500
  generationBoundPrefab: {fileID: 7481285013468266758, guid: d76c30cdb5786201891c5284c6314871,
    type: 3}
  asteroids:
  - {fileID: 7231173563552819121, guid: fd097f761318fa2a0b2601b4e73fae01, type: 3}
  - {fileID: 2627430702779591629, guid: 512738b79c47c8c438e155b89c9d61a1, type: 3}
  - {fileID: 4559565309798505237, guid: 4d79e48d7818a33399243dcee1f9c5b1, type: 3}
  - {fileID: 2621303132019274579, guid: 60556c56b02915aaa9ce64e4c4aaf8da, type: 3}
  - {fileID: 7647657347032014304, guid: 377b4b28aec4d2698b68b9c80d5463f7, type: 3}
  container: {fileID: 8866982584472749629}
--- !u!65 &8866982584472749629
BoxCollider:
  m_ObjectHideFlags: 0
  m_CorrespondingSourceObject: {fileID: 0}
  m_PrefabInstance: {fileID: 0}
  m_PrefabAsset: {fileID: 0}
  m_GameObject: {fileID: 6435377162541544604}
  m_Material: {fileID: 0}
  m_IsTrigger: 0
  m_Enabled: 1
  serializedVersion: 2
  m_Size: {x: 5000, y: 5000, z: 5000}
  m_Center: {x: 0, y: 0, z: 0}
